{
  "Comment.nvim": { "branch": "master", "commit": "0236521ea582747b58869cb72f70ccfa967d2e89" },
  "LuaSnip": { "branch": "master", "commit": "be7be2ca7f55bb881a7ffc16b2efa5af034ab06b" },
  "aerial.nvim": { "branch": "master", "commit": "24ebacab5821107c50f628e8e7774f105c08fe9b" },
  "alpha-nvim": { "branch": "main", "commit": "41283fb402713fc8b327e60907f74e46166f4cfd" },
  "auto-save.nvim": { "branch": "main", "commit": "979b6c82f60cfa80f4cf437d77446d0ded0addf0" },
  "clipboard-image.nvim": { "branch": "main", "commit": "216cde92787e40c160bfa22ab78fc4c510b8c875" },
  "cmp-nvim-lsp": { "branch": "main", "commit": "5af77f54de1b16c34b23cba810150689a3a90312" },
  "cmp_luasnip": { "branch": "master", "commit": "05a9ab28b53f71d1aece421ef32fee2cb857a843" },
  "copilot.vim": { "branch": "release", "commit": "f45ecd95c1474885e278f20d6ae86a6e30de2151" },
  "darkplus.nvim": { "branch": "master", "commit": "fb0ac9cb20b11cef4b42f89ea5dc23f3b3abf534" },
  "fidget.nvim": { "branch": "main", "commit": "0ba1e16d07627532b6cae915cc992ecac249fb97" },
  "friendly-snippets": { "branch": "main", "commit": "ea068f1becd91bcd4591fceb6420d4335e2e14d3" },
  "gitsigns.nvim": { "branch": "main", "commit": "c097cb255096f333e14d341082a84f572b394fa2" },
  "lazy.nvim": { "branch": "main", "commit": "31ddbea7c10b6920c9077b66c97951ca8682d5c8" },
  "lsp-grammarly": { "branch": "master", "commit": "6f4c52366d0aa9df0b7c79ef1c568dd555808fa5" },
  "lualine.nvim": { "branch": "master", "commit": "0a5a66803c7407767b799067986b4dc3036e1983" },
  "markdown-preview.nvim": { "branch": "master", "commit": "a923f5fc5ba36a3b17e289dc35dc17f66d0548ee" },
  "mason-lspconfig.nvim": { "branch": "main", "commit": "44509689b9bf3984d729cc264aacb31cb7f41668" },
  "mason.nvim": { "branch": "main", "commit": "751b1fcbf3d3b783fcf8d48865264a9bcd8f9b10" },
  "neo-tree.nvim": { "branch": "main", "commit": "16d1b194376bf1fc2acd89ccb3c29ba8315bfcea" },
  "neodev.nvim": { "branch": "main", "commit": "ce9a2e8eaba5649b553529c5498acb43a6c317cd" },
  "nord-vim": { "branch": "main", "commit": "f13f5dfbb784deddbc1d8195f34dfd9ec73e2295" },
  "nui.nvim": { "branch": "main", "commit": "cbd2668414331c10039278f558630ed19b93e69b" },
  "nvim-cmp": { "branch": "main", "commit": "ce16de5665c766f39c271705b17fff06f7bcb84f" },
  "nvim-lspconfig": { "branch": "master", "commit": "b3014f2209503944f2714cf27c95591433a0c7d8" },
  "nvim-treesitter": { "branch": "master", "commit": "7e6b044be8187c4c28dffa90ad0dc623dbe243f3" },
  "nvim-treesitter-textobjects": { "branch": "master", "commit": "c180aef9a197e9fe64cc285171910b8ea1400952" },
  "nvim-web-devicons": { "branch": "master", "commit": "6e355632387a085f15a66ad68cf681c1d7374a04" },
  "plenary.nvim": { "branch": "master", "commit": "8aad4396840be7fc42896e3011751b7609ca4119" },
  "project.nvim": { "branch": "main", "commit": "8c6bad7d22eef1b71144b401c9f74ed01526a4fb" },
  "suda.vim": { "branch": "master", "commit": "d0ccc1a5172f6a26182238767e60e08b931d11fa" },
  "synthwave84.nvim": { "branch": "master", "commit": "eac1f349713e2f470d8ee857913a42135bcc1a7f" },
  "telescope-file-browser.nvim": { "branch": "master", "commit": "5ee5002373655fd684a4ad0d47a3de876ceacf9a" },
  "telescope-fzf-native.nvim": { "branch": "main", "commit": "9ef21b2e6bb6ebeaf349a0781745549bbb870d27" },
  "telescope-zoxide": { "branch": "main", "commit": "68966349aa1b8e9ade403e18479ecf79447389a7" },
  "telescope.nvim": { "branch": "0.1.x", "commit": "6312868392331c9c0f22725041f1ec2bef57c751" },
  "true-zen.nvim": { "branch": "main", "commit": "2b9e210e0d1a735e1fa85ec22190115dffd963aa" },
  "undotree": { "branch": "master", "commit": "aa93a7e5890dbbebbc064cd22260721a6db1a196" },
  "vim-fugitive": { "branch": "master", "commit": "dac8e5c2d85926df92672bf2afb4fc48656d96c7" },
  "vim-illuminate": { "branch": "master", "commit": "305bf07b919ac526deb5193280379e2f8b599926" },
  "vim-rhubarb": { "branch": "master", "commit": "ee69335de176d9325267b0fd2597a22901d927b1" },
  "vim-sleuth": { "branch": "master", "commit": "1cc4557420f215d02c4d2645a748a816c220e99b" },
  "which-key.nvim": { "branch": "main", "commit": "4433e5ec9a507e5097571ed55c02ea9658fb268a" }
}